{
  "testFiles": "**/**.spec**",
  "watchForFileChanges": false,
  "waitForAnimations": true,
  "numTestsKeptInMemory": 5,
  "defaultCommandTimeout": 15000,
  "requestTimeout": 15000,
  "failOnStatusCode": false,
  "video": false,
  "chromeWebSecurity": false,
  "reporter": "cypress-multi-reporters",
  "reporterOptions": {
    "configFile": "reporters/reporter-config.json"
  },
  "env": {
    "RETRIES": 2
  }
}
